{
    "name" : "cron_log",
    "views": {
        "dashboard": {
            "template": "/application/cron_log/dashboard.html",
            "url": "/app/cron_log"
        },
        "user_details": {
            "template": "/application/cron_log/dashboard/userDetails.html",
            "url": "/app/cron_log/user_details"
        },
        "jobs": {
            "template": "/application/cron_log/dashboard/cronJobs.html",
            "url": "/app/cron_log/jobs"
        },
        "shops": {
            "template": "/application/cron_log/dashboard/shops.html",
            "url": "/app/cron_log/shops"
        },
        "job_details": {
            "template": "/application/cron_log/dashboard/jobDetails.html",
            "url": "/app/cron_log/job_details"
        }
    },
    "js": [
        "http://cdn.oesmith.co.uk/morris-0.4.1.min.js",
        "http://cdnjs.cloudflare.com/ajax/libs/raphael/2.1.0/raphael-min.js",
        "/cron_log/js/moment.min.js",
        "/cron_log/js/daterangepicker.js",
        "/cron_log/js/angular-daterangepicker.min.js"
    ],
    "css": [
        "/cron_log/css/daterangepicker.css"
    ],
    "scripts": {
        "plugin.CronLog.controllers":"/cron_log/scripts/cron_log_ctrls.js",
        "plugin.CronLog.services":"/cron_log/scripts/cron_log_services.js"
    }
}